<?xml version="1.0" standalone="no"?>
<!DOCTYPE svg PUBLIC "-//W3C//DTD SVG 1.1//EN" "http://www.w3.org/Graphics/SVG/1.1/DTD/svg11.dtd" >
<svg xmlns="http://www.w3.org/2000/svg">
<metadata>Generated by IcoMoon</metadata>
<defs>
<font id="icomoon" horiz-adv-x="1024">
<font-face units-per-em="1024" ascent="960" descent="-64" />
<missing-glyph horiz-adv-x="1024" />
<glyph unicode="&#x20;" d="" horiz-adv-x="512" />
<glyph unicode="&#xe060;" d="M128 576h-128v-320h128v64l128.018-36.578c-0.004-0.484-0.018-0.968-0.018-1.458v-89.964c0-35.204 28.798-64 64-64h128c35.2 0 64 28.796 64 64v18.286l320-91.43v594.284l-704-201.14v64zM320 265.14l127.856-36.53v-36.61h-127.856v73.14zM896 731.428v-630.858l128-36.57v704z" />
<glyph unicode="&#xe086;" d="M704 960h-640v-1024h896v768l-256 256zM896 0h-768v896h576v-192h192v-704zM256 192h512v-64h-512zM256 320h512v-64h-512zM256 448h512v-64h-512z" />
<glyph unicode="&#xe112;" d="M0 0c0-35.348 28.654-64 64-64h896c35.348 0 64 28.652 64 64v576h-1024v-576zM704 512h256v-128h-256v128zM704 320h256v-128h-256v128zM704 128h256v-128h-256v128zM384 512h256v-128h-256v128zM384 320h256v-128h-256v128zM384 128h256v-128h-256v128zM64 512h256v-128h-256v128zM64 320h256v-128h-256v128zM64 128h256v-128h-256v128zM960 832h-128v91.428c0 20.198-14.326 36.572-32 36.572-17.672 0-32-16.374-32-36.572v-91.428h-512v91.428c0 20.198-14.326 36.572-32 36.572s-32-16.374-32-36.572v-91.428h-128c-35.346 0-64-28.654-64-64v-128h1024v128c0 35.346-28.654 64-64 64zM224 672c-35.346 0-64 28.654-64 64 0 23.684 12.876 44.348 32 55.416v-55.416c0-17.672 14.328-32 32-32s32 14.328 32 32v55.416c19.124-11.068 32-31.732 32-55.416 0-35.346-28.654-64-64-64zM800 672c-35.344 0-64 28.654-64 64 0 23.684 12.876 44.348 32 55.416v-55.416c0-17.672 14.328-32 32-32 17.674 0 32 14.328 32 32v55.416c19.126-11.068 32-31.732 32-55.416 0-35.346-28.652-64-64-64z" />
<glyph unicode="&#xe1fe;" d="M128 64h896v-128h-1024v1024h128zM288 128c-53.020 0-96 42.98-96 96s42.98 96 96 96c2.828 0 5.622-0.148 8.388-0.386l103.192 171.986c-9.84 15.070-15.58 33.062-15.58 52.402 0 53.020 42.98 96 96 96 53.020 0 96-42.98 96-96 0-19.342-5.74-37.332-15.58-52.402l103.192-171.986c2.766 0.238 5.56 0.386 8.388 0.386 2.136 0 4.248-0.094 6.35-0.23l170.356 298.122c-10.536 15.408-16.706 34.036-16.706 54.11 0 53.020 42.98 96 96 96 53.020 0 96-42.98 96-96 0-53.020-42.98-96-96-96-2.14 0-4.248 0.094-6.35 0.232l-170.356-298.124c10.536-15.406 16.706-34.036 16.706-54.11 0-53.020-42.98-96-96-96-53.020 0-96 42.98-96 96 0 19.34 5.74 37.332 15.578 52.402l-103.19 171.984c-2.766-0.238-5.56-0.386-8.388-0.386s-5.622 0.146-8.388 0.386l-103.192-171.986c9.84-15.068 15.58-33.060 15.58-52.4 0-53.020-42.98-96-96-96z" />
<glyph unicode="&#xe2c9;" d="M320 256c17.6-17.6 47.274-16.726 65.942 1.942l316.118 316.116c18.668 18.668 19.54 48.342 1.94 65.942s-47.274 16.726-65.942-1.942l-316.116-316.116c-18.668-18.668-19.542-48.342-1.942-65.942zM476.888 284.888c4.56-9.050 6.99-19.16 6.99-29.696 0-17.616-6.744-34.060-18.992-46.308l-163.382-163.382c-12.248-12.248-28.694-18.992-46.308-18.992s-34.060 6.744-46.308 18.992l-99.382 99.382c-12.248 12.248-18.992 28.694-18.992 46.308s6.744 34.060 18.992 46.308l163.382 163.382c12.248 12.248 28.694 18.994 46.308 18.994 10.536 0 20.644-2.43 29.696-6.99l65.338 65.338c-27.87 21.41-61.44 32.16-95.034 32.16-39.986 0-79.972-15.166-110.308-45.502l-163.382-163.382c-60.67-60.67-60.67-159.948 0-220.618l99.382-99.382c30.334-30.332 70.32-45.5 110.306-45.5 39.988 0 79.974 15.168 110.308 45.502l163.382 163.382c55.82 55.82 60.238 144.298 13.344 205.344l-65.34-65.34zM978.498 815.116l-99.382 99.382c-30.334 30.336-70.32 45.502-110.308 45.502-39.986 0-79.972-15.166-110.308-45.502l-163.382-163.382c-55.82-55.82-60.238-144.298-13.342-205.342l65.338 65.34c-4.558 9.050-6.988 19.16-6.988 29.694 0 17.616 6.744 34.060 18.992 46.308l163.382 163.382c12.248 12.248 28.694 18.994 46.308 18.994s34.060-6.746 46.308-18.994l99.382-99.382c12.248-12.248 18.992-28.694 18.992-46.308s-6.744-34.060-18.992-46.308l-163.382-163.382c-12.248-12.248-28.694-18.992-46.308-18.992-10.536 0-20.644 2.43-29.696 6.99l-65.338-65.338c27.872-21.41 61.44-32.16 95.034-32.16 39.988 0 79.974 15.168 110.308 45.502l163.382 163.382c60.67 60.666 60.67 159.944 0 220.614z" />
<glyph unicode="&#xe2d1;" d="M832 787.694c76.466 0 145.092 41.622 192 73.106v-595.69c-46.908-31.486-115.534-73.11-192-73.11s-145.092 22.67-192 54.156c-46.908 31.48-115.534 54.15-192 54.15-76.466 0-145.090-38.916-192-70.396v595.69c46.91 31.484 115.534 70.4 192 70.4s145.092-22.668 192-54.152c46.908-31.484 115.534-54.154 192-54.154zM128 960c35.346 0 64-28.654 64-64v-960h-128v960c0 35.346 28.654 64 64 64z" />
<glyph unicode="&#xe2dc;" d="M512 736c-256 0-511.998-223.998-512-288v0c0.002-64.002 256-288 512-288s511.994 223.998 512 288v0c-0.006 64.002-256 288-512 288zM512 256c-106.042 0-192 85.96-192 192s85.958 192 192 192c106.040 0 192-85.96 192-192 0-106.040-85.96-192-192-192zM384 448c0 70.692 57.308 128 128 128s128-57.308 128-128c0-70.692-57.308-128-128-128-70.692 0-128 57.308-128 128z" />
<glyph unicode="&#xe2dd;" d="M512 320c70.692 0 128 57.308 128 128 0 27.254-8.542 52.498-23.062 73.256l303.36 353.918-48.594 41.65-303.338-353.894c-17.010 8.36-36.136 13.070-56.366 13.070-70.692 0-128-57.308-128-128 0-27.254 8.544-52.498 23.062-73.256l-303.358-353.918 48.592-41.652 303.338 353.894c17.010-8.358 36.134-13.068 56.366-13.068zM330.872 384.196c-7.034 19.964-10.872 41.434-10.872 63.804 0 106.040 85.958 192 192 192 12.074 0 23.882-1.126 35.34-3.258l74.162 86.524c-35.996 8.098-72.748 12.734-109.502 12.734-256 0-511.998-223.998-512-288 0-37.63 88.516-130.558 213.48-200.762l117.392 136.958zM810.52 648.76l-117.39-136.956c7.032-19.964 10.87-41.434 10.87-63.804 0-106.040-85.96-192-192-192-12.074 0-23.882 1.126-35.34 3.258l-74.162-86.524c35.998-8.098 72.748-12.734 109.502-12.734 256 0 511.994 223.998 512 288-0.004 37.63-88.518 130.56-213.48 200.76z" />
<glyph unicode="&#xe2ff;" d="M1024 562.95l-353.78 51.408-158.22 320.582-158.216-320.582-353.784-51.408 256-249.538-60.432-352.352 316.432 166.358 316.432-166.358-60.434 352.352 256.002 249.538zM512 206.502l-223.462-117.48 42.676 248.83-180.786 176.222 249.84 36.304 111.732 226.396 111.736-226.396 249.836-36.304-180.788-176.222 42.678-248.83-223.462 117.48z" />
<glyph unicode="&#xe313;" d="M928 384c73 0 32-192-32-192 32 0 0-160-64-160 0-64-64-96-128-96-270.352 0-175.264 67.65-448 96v512c240.922 72.268 480 253.424 480 416 53 0 192-64 0-384 0 0 160 0 192 0 96 0 64-192 0-192zM192 544v-512h64v-32h-128c-35.2 0-64 43.2-64 96v384c0 52.8 28.8 96 64 96h128v-32h-64z" />
<glyph unicode="&#xe314;" d="M96 512c-73 0-32 192 32 192-32 0 0 160 64 160 0 64 64 96 128 96 270.352 0 175.264-67.65 448-96v-512c-240.922-72.268-480-253.424-480-416-53 0-192 64 0 384 0 0-160 0-192 0-96 0-64 192 0 192zM832 352v512h-64v32h128c35.2 0 64-43.2 64-96v-384c0-52.8-28.8-96-64-96h-128v32h64z" />
<glyph unicode="&#xe37a;" d="M992 416l-288 288v-192h-384v-192h384v-192zM832 768v64c0 35.2-28.8 64-64 64h-704c-35.2 0-64-28.8-64-64v-832c0-35.2 28.798-64 64-64h704c35.2 0 64 28.8 64 64v64h-704v704h704z" />
<glyph unicode="&#xe4e2;" d="M842.012 370.52c-13.648 13.446-43.914 20.566-89.972 21.172-31.178 0.344-68.702-2.402-108.17-7.928-17.674 10.198-35.892 21.294-50.188 34.658-38.462 35.916-70.568 85.772-90.576 140.594 1.304 5.12 2.414 9.62 3.448 14.212 0 0 21.666 123.060 15.93 164.666-0.79 5.706-1.274 7.362-2.808 11.796l-1.882 4.834c-5.896 13.592-17.448 27.994-35.566 27.208l-10.916 0.344c-20.2 0-36.664-10.332-40.986-25.774-13.138-48.434 0.418-120.892 24.982-214.738l-6.288-15.286c-17.588-42.876-39.63-86.060-59.078-124.158l-2.528-4.952c-20.46-40.038-39.024-74.026-55.854-102.822l-17.376-9.188c-1.264-0.668-31.044-16.418-38.028-20.644-59.256-35.382-98.522-75.54-105.036-107.416-2.072-10.17-0.53-23.186 10.014-29.214l16.806-8.458c7.29-3.652 14.978-5.502 22.854-5.502 42.204 0 91.2 52.572 158.696 170.366 77.93 25.368 166.654 46.456 244.414 58.090 59.258-33.368 132.142-56.546 178.142-56.546 8.168 0 15.212 0.778 20.932 2.296 8.822 2.336 16.258 7.366 20.792 14.192 8.926 13.432 10.734 31.932 8.312 50.876-0.722 5.624-5.212 12.576-10.070 17.322zM211.646 145.952c7.696 21.042 38.16 62.644 83.204 99.556 2.832 2.296 9.808 8.832 16.194 14.902-47.102-75.124-78.646-105.066-99.398-114.458zM478.434 760.314c13.566 0 21.284-34.194 21.924-66.254 0.64-32.060-6.858-54.56-16.158-71.208-7.702 24.648-11.426 63.5-11.426 88.904 0 0-0.566 48.558 5.66 48.558zM398.852 322.506c9.45 16.916 19.282 34.756 29.33 53.678 24.492 46.316 39.958 82.556 51.478 112.346 22.91-41.684 51.444-77.12 84.986-105.512 4.184-3.542 8.618-7.102 13.274-10.65-68.21-13.496-127.164-29.91-179.068-49.862zM828.904 326.348c-4.154-2.598-16.054-4.1-23.708-4.1-24.706 0-55.272 11.294-98.126 29.666 16.468 1.218 31.562 1.838 45.1 1.838 24.782 0 32.12 0.108 56.35-6.072s24.538-18.734 20.384-21.332zM903.432 760.57l-142.864 142.862c-31.112 31.112-92.568 56.568-136.568 56.568h-480c-44 0-80-36-80-80v-864c0-44 36-80 80-80h736c44 0 80 36 80 80v608c0 44-25.456 105.458-56.568 136.57zM858.178 715.314c3.13-3.13 6.25-6.974 9.28-11.314h-163.458v163.456c4.34-3.030 8.184-6.15 11.314-9.28l142.864-142.862zM896 16c0-8.672-7.328-16-16-16h-736c-8.672 0-16 7.328-16 16v864c0 8.672 7.328 16 16 16h480c4.832 0 10.254-0.61 16-1.704v-254.296h254.296c1.094-5.746 1.704-11.166 1.704-16v-608z" />
<glyph unicode="&#xe604;" d="M81.613 702.157c24.986-13.466 371.149-199.373 384.051-206.285 12.851-6.912 29.542-10.24 46.336-10.24 16.845 0 33.536 3.328 46.387 10.291 12.902 6.912 359.014 192.819 384 206.285 25.037 13.414 48.691 55.552 2.765 55.552h-866.253c-45.926 0-22.323-42.138 2.714-55.603zM952.986 599.757c-28.416-14.848-377.19-197.171-394.598-206.285s-29.542-10.291-46.387-10.291c-16.794 0-28.928 1.178-46.336 10.291s-366.234 191.488-394.598 206.285c-20.019 10.445-19.866-1.792-19.866-11.213 0-9.421 0-375.552 0-375.552 0-21.504 28.621-49.152 50.79-49.152h820.070c22.221 0 50.739 27.648 50.739 49.101 0 0 0 366.131 0 375.552 0 9.472 0.205 21.709-19.814 11.264z" />
<glyph unicode="&#xe6d5;" d="M737.229 80.998c13.722-13.875 13.722-36.25 0-50.125s-35.891-13.875-49.613 0l-400.896 404.838c-13.722 13.875-13.722 36.301 0 50.125l400.896 404.89c13.722 13.875 35.891 13.875 49.613 0s13.722-36.25 0-50.125l-365.568-379.802 365.568-379.802z" />
<glyph unicode="&#xe6d6;" d="M132.198 686.029c-13.875 13.722-36.301 13.722-50.125 0-13.824-13.67-13.824-35.891 0-49.613l404.89-400.896c13.875-13.722 36.25-13.722 50.125 0l404.89 400.896c13.824 13.722 13.875 35.891 0 49.613s-36.352 13.722-50.125 0.051l-379.853-365.619-379.802 365.568z" />
<glyph unicode="&#xe6d7;" d="M891.802 235.571c13.875-13.722 36.301-13.722 50.125 0 13.875 13.722 13.875 35.891 0 49.613l-404.89 400.896c-13.824 13.722-36.25 13.722-50.074 0l-404.89-400.896c-13.824-13.722-13.875-35.891 0-49.613s36.25-13.722 50.125 0l379.802 365.619 379.802-365.619z" />
<glyph unicode="&#xe6d8;" d="M286.704 80.998c-13.722-13.875-13.722-36.25 0-50.125s35.891-13.875 49.613 0l400.896 404.838c13.722 13.875 13.722 36.301 0 50.125l-400.896 404.89c-13.722 13.875-35.891 13.875-49.613 0s-13.722-36.25 0-50.125l365.568-379.802-365.568-379.802z" />
</font></defs></svg>